[
  {
    "name": "Paxpar Checklist Configuration",
    "description": "Paxpar Checklisrt Configuration used to define a checklist and its steps",
    "fileMatch": [
      ".checklist.yaml",
      ".checklist.yml"
    ],
    "url": "https://gitlab.com/paxpar/schemas/-/raw/main/schemas/checklist-1.0.schema.json",
    "versions": {
      "1.0": "https://gitlab.com/paxpar/schemas/-/raw/main/schemas/checklist-1.0.schema.json"
    }
  },
  {
    "name": "Paxpar CraftForm Configuration",
    "description": "Paxpar CraftForm Configuration used to define a form and its fields",
    "fileMatch": [
      ".craftform.yaml",
      ".craftform.yml"
    ],
    "url": "https://gitlab.com/paxpar/schemas/-/raw/main/schemas/craftform-1.0.schema.json",
    "versions": {
      "1.0": "https://gitlab.com/paxpar/schemas/-/raw/main/schemas/craftform-1.0.schema.json"
    }
  }
]